<?xml version="1.0" encoding="UTF-8"?>
<CustomTab xmlns="http://soap.sforce.com/2006/04/metadata">
    <label>Finance Invoicing Exports</label>
    <mobileReady>false</mobileReady>
    <motif>Custom98: Truck</motif>
    <page>Exports_FinanceInvoicing</page>
</CustomTab>
