<?xml version="1.0" encoding="UTF-8"?>
<CustomTab xmlns="http://soap.sforce.com/2006/04/metadata">
    <customObject>true</customObject>
    <description>M&amp;A Deal Tracker Report</description>
    <mobileReady>false</mobileReady>
    <motif>Custom41: Stack of Cash</motif>
</CustomTab>
